INFO     src.logger:logger.py:46 
-----
[2022-09-23 09:14:14.374040] Request method: GET
[2022-09-23 09:14:14.374053] Request URL: https://reqres.in/api/users
[2022-09-23 09:14:14.374056] Request data: None
[2022-09-23 09:14:14.374059] Request headers: {'X-THIS_IS_TEST': 'True'}
[2022-09-23 09:14:14.374063] Request cookies: {}

INFO     src.logger:logger.py:60 
[2022-09-23 09:14:14.437440] Response code: 200
[2022-09-23 09:14:14.437453] Response text: {"page":2,"per_page":6,"total":12,"total_pages":2,"data":[{"id":7,"email":"michael.lawson@reqres.in","first_name":"Michael","last_name":"Lawson","avatar":"https://reqres.in/img/faces/7-image.jpg"},{"id":8,"email":"lindsay.ferguson@reqres.in","first_name":"Lindsay","last_name":"Ferguson","avatar":"https://reqres.in/img/faces/8-image.jpg"},{"id":9,"email":"tobias.funke@reqres.in","first_name":"Tobias","last_name":"Funke","avatar":"https://reqres.in/img/faces/9-image.jpg"},{"id":10,"email":"byron.fields@reqres.in","first_name":"Byron","last_name":"Fields","avatar":"https://reqres.in/img/faces/10-image.jpg"},{"id":11,"email":"george.edwards@reqres.in","first_name":"George","last_name":"Edwards","avatar":"https://reqres.in/img/faces/11-image.jpg"},{"id":12,"email":"rachel.howell@reqres.in","first_name":"Rachel","last_name":"Howell","avatar":"https://reqres.in/img/faces/12-image.jpg"}],"support":{"url":"https://reqres.in/#support-heading","text":"To keep ReqRes free, contributions towards server costs are appreciated!"}}
[2022-09-23 09:14:14.437649] Response headers: {'Date': 'Fri, 23 Sep 2022 09:14:14 GMT', 'Content-Type': 'application/json; charset=utf-8', 'Transfer-Encoding': 'chunked', 'Connection': 'keep-alive', 'X-Powered-By': 'Express', 'Access-Control-Allow-Origin': '*', 'Etag': 'W/"406-ut0vzoCuidvyMf8arZpMpJ6ZRDw"', 'Via': '1.1 vegur', 'Cache-Control': 'max-age=14400', 'CF-Cache-Status': 'HIT', 'Age': '5639', 'Report-To': '{"endpoints":[{"url":"https:\\/\\/a.nel.cloudflare.com\\/report\\/v3?s=%2B%2BwhX4rHhJwX7QYjzW9uuQLOAAbs0TckaGO%2F7oa3nbgJshEiR0LyDTAywM0daTYUHnvnR7RKR2nvQkdoFhuHoX6HiNbjR4jStvk3CBwqPZUNeEueuaZ3yZvWfg%3D%3D"}],"group":"cf-nel","max_age":604800}', 'NEL': '{"success_fraction":0,"report_to":"cf-nel","max_age":604800}', 'Vary': 'Accept-Encoding', 'Server': 'cloudflare', 'CF-RAY': '74f22b4029e58278-IAD', 'Content-Encoding': 'gzip'}
[2022-09-23 09:14:14.437665] Response cookies: {}
-----